Processamento de dados de fitossociologia utilizando o R
…
Fitossociologia

# Ordenando em ordem descrescente de IVI
fito <- fito %>% arrange(desc(IVI))
fito

# A tibble: 89 × 12
   corrected_name        n    ab    ui    ut    DA    DR   DoA   DoR    FA    FR
   <chr>             <int> <dbl> <int> <int> <dbl> <dbl> <dbl> <dbl> <dbl> <dbl>
 1 Araucaria angust…   125 5.27     34    50   125  6.78 5.27  14.4     68  4.05
 2 Lithraea brasili…   101 3.94     40    50   101  5.48 3.94  10.7     80  4.77
 3 Casearia decandra   149 1.19     43    50   149  8.08 1.19   3.24    86  5.13
 4 Jacaranda puberu…   172 1.54     23    50   172  9.33 1.54   4.20    46  2.74
 5 Matayba elaeagno…    84 2.21     19    50    84  4.56 2.21   6.01    38  2.26
 6 Podocarpus lambe…    69 1.48     32    50    69  3.74 1.48   4.03    64  3.81
 7 Sapium glandulos…    66 1.26     20    50    66  3.58 1.26   3.42    40  2.38
 8 Ocotea pulchella     34 1.60     26    50    34  1.84 1.60   4.36    52  3.10
 9 Myrsine umbellata    69 0.704    28    50    69  3.74 0.704  1.92    56  3.34
10 Lamanonia ternata    37 1.67     20    50    37  2.01 1.67   4.55    40  2.38
# ℹ 79 more rows
# ℹ 1 more variable: IVI <dbl>
…
